…
``` r
population = read.csv("./ce8130entire.csv")

set.seed(33)
A = 
  population %>% 
  group_by(sex) %>% 
  sample_n(100)

A
```

    ## # A tibble: 200 × 7
    ## # Groups:   sex [2]
    ##    provnum   sex  race smoker totchg   age  year
    ##      <int> <int> <int>  <int>  <int> <int> <int>
    ##  1      28     1     0      0  13434    78  1995
    ##  2      21     1     0      0   7701    60  1995
    ##  3       7     1     0      0   2225    67  1991
    ##  4      20     1     0      0   8369    68  1994
    ##  5      47     1     0      0   3095    77  1992
    ##  6       7     1     0      0   4134    68  1992
    ##  7      14     1     0      0   3226    63  1992
    ##  8      27     1     0      0   4592    71  1992
    ##  9      48     1     0      0   4988    60  1993
    ## 10      14     1     0      0   5180    68  1994
    ## # … with 190 more rows
…
``` r
set.seed(33)
B = 
  population %>% 
  group_by(sex) %>% 
  sample_n(30)

B
```

    ## # A tibble: 60 × 7
    ## # Groups:   sex [2]
    ##    provnum   sex  race smoker totchg   age  year
    ##      <int> <int> <int>  <int>  <int> <int> <int>
    ##  1      28     1     0      0  13434    78  1995
    ##  2      21     1     0      0   7701    60  1995
    ##  3       7     1     0      0   2225    67  1991
    ##  4      20     1     0      0   8369    68  1994
    ##  5      47     1     0      0   3095    77  1992
    ##  6       7     1     0      0   4134    68  1992
    ##  7      14     1     0      0   3226    63  1992
    ##  8      27     1     0      0   4592    71  1992
    ##  9      48     1     0      0   4988    60  1993
    ## 10      14     1     0      0   5180    68  1994
    ## # … with 50 more rows
…
